{
    "author": "Beethoven",
    "category": "misc",
    "files": {
        "fur_elise_(c)oguri.mid": {"year": 1808, "key": "A minor", "name": "Bagattelle in a minor, WoO 59 Für Elise (1808/1810)"}
    }
}

